<?xml version="1.0" encoding="iso-8859-1"?>
<!-- Generator: Adobe Illustrator 19.0.0, SVG Export Plug-In . SVG Version: 6.00 Build 0)  -->
<svg version="1.1" id="Capa_1" xmlns="http://www.w3.org/2000/svg" xmlns:xlink="http://www.w3.org/1999/xlink" x="0px" y="0px"
	 viewBox="0 0 512 512" style="enable-background:new 0 0 512 512;" xml:space="preserve">
<path style="fill:#E8EAE9;" d="M469.333,24.533V486.4c0,13.867-10.667,24.533-24.533,24.533h-304V0h302.933
	C457.6,0,469.333,10.667,469.333,24.533z"/>
<path style="fill:#F3705A;" d="M140.8,0H80C59.733,0,42.667,17.067,42.667,37.333v437.333C42.667,494.933,59.733,512,80,512h60.8V0z
	"/>
<path style="fill:#415A6B;" d="M389.333,211.2L389.333,211.2c0,10.667-8.533,19.2-19.2,19.2h-44.8v135.467
	c0,10.667-8.533,19.2-19.2,19.2l0,0c-10.667,0-19.2-8.533-19.2-19.2V230.4h-44.8c-10.667,0-19.2-8.533-19.2-19.2l0,0
	c0-10.667,8.533-19.2,19.2-19.2h44.8v-44.8c0-10.667,8.533-19.2,19.2-19.2l0,0c10.667,0,19.2,8.533,19.2,19.2V192h44.8
	C380.8,192,389.333,200.533,389.333,211.2z"/>
<g>
</g>
<g>
</g>
<g>
</g>
<g>
</g>
<g>
</g>
<g>
</g>
<g>
</g>
<g>
</g>
<g>
</g>
<g>
</g>
<g>
</g>
<g>
</g>
<g>
</g>
<g>
</g>
<g>
</g>
</svg>
